; XZ81 memory map
; By Adam Klotblixt

.MEMORYMAP
    DEFAULTSLOT 1
    SLOT 0 START $0000 SIZE $2000
    SLOT 1 START $2000 SIZE $6000
.ENDME

.ROMBANKMAP
    BANKSTOTAL 2
    BANKSIZE $2000
    BANKS 1
    BANKSIZE $6000
    BANKS 1
.ENDRO
